{
	"title": "Qt WebBrowser",
	"id": "com.nizovn.qtwebbrowser",
	"version": "1.0.2",
	"release_date": "15-March-2020",
	"vendor": "Nikolay Nizov",
	"vendor_email": "nizovn@gmail.com",
	"type": "pdk",
	"main": "qtwebbrowser",
	"icon": "icon.png",
	"qt5sdk": {
		"exports": [
			"QMLSCENE_DEVICE=webos",
			"QT_QPA_WEBOS_AUTOROTATE=1"
		]
	}
}
